Tidy Asset Pricing
…
1.53

2.30

5.25

2741.72

Sanity check

# Months that have more n for 5Y than 3Y
tbl.betas_ts %>% filter(window %in% c("3Y", "5Y")) %>% select(window, month, n) %>% arrange(month, window) %>% pivot_wider(names_from = window, values_from = n) %>% filter(`3Y` != `5Y`)

## # A tibble: 955 x 3
##    month       `3Y`  `5Y`
##    <date>     <int> <int>
##  1 1930-02-01   546   547
##  2 1930-08-01   548   549
##  3 1930-09-01   553   554
##  4 1930-10-01   559   560
##  5 1930-11-01   566   567
##  6 1930-12-01   571   572
##  7 1931-01-01   578   579
##  8 1931-02-01   585   586
##  9 1931-03-01   586   588
## 10 1931-04-01   594   598
## # ... with 945 more rows

# Look at one example of such month
tbl.betas %>% 
  select(permno, month, beta, window) %>% 
  pivot_wider(id_cols = c(permno, month),
              names_from = window,
              values_from = beta) %>% 
  filter(month == ymd("1931-04-01")) %>% 
  select(permno, month, `3Y`, `5Y`)

## # A tibble: 728 x 4
##    permno month       `3Y`  `5Y`
##     <int> <date>     <dbl> <dbl>
##  1  10006 1931-04-01 0.647 0.689
##  2  10014 1931-04-01 0.915 0.785
##  3  10022 1931-04-01 0.509 0.573
##  4  10030 1931-04-01 0.669 0.698
##  5  10057 1931-04-01 1.64  1.44 
##  6  10073 1931-04-01 2.47  2.55 
##  7  10081 1931-04-01 2.02  2.06 
##  8  10102 1931-04-01 1.12  1.06 
##  9  10137 1931-04-01 1.69  1.63 
## 10  10145 1931-04-01 0.978 0.986
## # ... with 718 more rows
…
